Lab2/simulation/qsim/Lab2.msim.vcd
$comment
	File created using the following command:
		vcd file Lab2.msim.vcd -direction
$end
$date
	Wed Mar 24 21:27:57 2021
$end
$version
	ModelSim Version 10.1d
$end
$timescale
	1ps
$end
$scope module FA_vlg_vec_tst $end
$var reg 1 ! A $end
$var reg 1 " B $end
$var reg 1 # Cin $end
$var wire 1 $ Cout $end
$var wire 1 % S $end
$var wire 1 & sampler $end
$scope module i1 $end
$var wire 1 ' gnd $end
$var wire 1 ( vcc $end
$var wire 1 ) unknown $end
$var tri1 1 * devclrn $end
$var tri1 1 + devpor $end
$var tri1 1 , devoe $end
$var wire 1 - Cin~combout $end
$var wire 1 . A~combout $end
$var wire 1 / B~combout $end
$var wire 1 0 inst5~0_combout $end
$var wire 1 1 inst1~0_combout $end
$upscope $end
$upscope $end
$enddefinitions $end
#0
$dumpvars
0!
1"
0#
0$
1%
x&
0'
1(
x)
1*
1+
1,
0-
0.
1/
00
11
$end
#50000
1!
1.
0&
01
10
0%
1$
#100000
0!
0.
1&
11
00
1%
0$
#150000
1!
1.
0&
01
10
0%
1$
#200000
0!
0.
1&
11
00
1%
0$
#240000
1#
1-
0&
01
10
0%
1$
#250000
1!
1.
1&
11
1%
#260000
0"
0/
0&
01
0%
#300000
0!
0.
1&
11
00
1%
0$
#350000
1!
1.
0&
01
10
0%
1$
#380000
0#
0-
1&
11
00
1%
0$
#400000
0!
0.
0&
01
0%
#450000
1!
1.
1&
11
1%
#500000
0!
0.
0&
01
0%
#550000
1!
1.
1&
11
1%
#600000
0!
0.
0&
01
0%
#650000
1!
1.
1&
11
1%
#700000
0!
0.
0&
01
0%
#750000
1!
1.
1&
11
1%
#800000
0!
0.
0&
01
0%
#820000
1"
1/
1&
11
1%
#850000
1!
1.
0&
01
10
0%
1$
#900000
0!
0.
1&
11
00
1%
0$
#950000
1!
1.
0&
01
10
0%
1$
