Lab1/Lab1-Exercise2/simulation/qsim/Exercise2.msim.vcd
$comment
	File created using the following command:
		vcd file Exercise2.msim.vcd -direction
$end
$date
	Fri Feb 26 11:57:21 2021
$end
$version
	ModelSim Version 10.1d
$end
$timescale
	1ps
$end
$scope module Exercise2_vlg_vec_tst $end
$var reg 1 ! A0 $end
$var reg 1 " A1 $end
$var reg 1 # I0 $end
$var reg 1 $ I1 $end
$var reg 1 % I2 $end
$var reg 1 & I3 $end
$var wire 1 ' D $end
$var wire 1 ( sampler $end
$scope module i1 $end
$var wire 1 ) gnd $end
$var wire 1 * vcc $end
$var wire 1 + unknown $end
$var tri1 1 , devclrn $end
$var tri1 1 - devpor $end
$var tri1 1 . devoe $end
$var wire 1 / A1~combout $end
$var wire 1 0 I1~combout $end
$var wire 1 1 I2~combout $end
$var wire 1 2 I0~combout $end
$var wire 1 3 A0~combout $end
$var wire 1 4 inst4~0_combout $end
$var wire 1 5 I3~combout $end
$var wire 1 6 inst4~1_combout $end
$upscope $end
$upscope $end
$enddefinitions $end
#0
$dumpvars
0!
0"
1#
0$
0%
1&
x'
x(
0)
1*
x+
1,
1-
1.
0/
00
01
12
03
x4
15
x6
$end
#5259
14
#5925
16
#10925
1'
#50000
1!
0(
#50862
13
#56121
04
#56787
06
#61787
0'
#100000
1"
0!
1(
#100842
1/
#100862
03
#150000
1!
0(
#150862
13
#156121
14
#156787
16
#161787
1'
