Lab1/Lab1_Exercise1/simulation/qsim/Lab1_Exercise1.msim.vcd
$comment
	File created using the following command:
		vcd file Lab1_Exercise1.msim.vcd -direction
$end
$date
	Fri Feb 26 12:00:19 2021
$end
$version
	ModelSim Version 10.1d
$end
$timescale
	1ps
$end
$scope module Lab1_Exercise1_vlg_vec_tst $end
$var reg 1 ! PB1 $end
$var reg 1 " PB2 $end
$var wire 1 # Q0 $end
$var wire 1 $ Q1 $end
$var wire 1 % Q2 $end
$var wire 1 & Q3 $end
$var wire 1 ' sampler $end
$scope module i1 $end
$var wire 1 ( gnd $end
$var wire 1 ) vcc $end
$var wire 1 * unknown $end
$var tri1 1 + devclrn $end
$var tri1 1 , devpor $end
$var tri1 1 - devoe $end
$var wire 1 . PB2~combout $end
$var wire 1 / PB1~combout $end
$var wire 1 0 inst3~combout $end
$var wire 1 1 inst5~0_combout $end
$var wire 1 2 inst5~1_combout $end
$var wire 1 3 inst5~2_combout $end
$upscope $end
$upscope $end
$enddefinitions $end
#0
$dumpvars
0!
0"
x#
x$
x%
x&
x'
0(
1)
x*
1+
1,
1-
0.
0/
x0
x1
x2
x3
$end
#6038
03
#6043
02
#6515
00
#6516
01
#9490
0%
#9492
0&
#9986
1#
#9995
0$
#50000
1!
0'
#50862
1/
#57377
10
#57378
11
#60848
0#
#60857
1$
#100000
1"
0!
1'
#100842
1.
#100862
0/
#106880
13
#106884
01
#107379
03
12
#110363
0$
#110826
1%
#150000
1!
0'
#150862
1/
#157379
13
02
#160826
0%
#160833
1&
