Lab1/Lab1-Exercise3/simulation/qsim/Exercise3.msim.vcd
$comment
	File created using the following command:
		vcd file Exercise3.msim.vcd -direction
$end
$date
	Wed Mar 10 23:40:30 2021
$end
$version
	ModelSim Version 10.1d
$end
$timescale
	1ps
$end
$scope module Exercise3_vlg_vec_tst $end
$var reg 1 ! I0 $end
$var reg 1 " I1 $end
$var reg 1 # I2 $end
$var wire 1 $ F0 $end
$var wire 1 % F1 $end
$var wire 1 & sampler $end
$scope module i1 $end
$var wire 1 ' gnd $end
$var wire 1 ( vcc $end
$var wire 1 ) unknown $end
$var tri1 1 * devclrn $end
$var tri1 1 + devpor $end
$var tri1 1 , devoe $end
$var wire 1 - I1~combout $end
$var wire 1 . I0~combout $end
$var wire 1 / I2~combout $end
$var wire 1 0 inst1~0_combout $end
$var wire 1 1 inst4~0_combout $end
$upscope $end
$upscope $end
$enddefinitions $end
#0
$dumpvars
0!
0"
0#
x$
x%
x&
0'
1(
x)
1*
1+
1,
0-
0.
0/
x0
x1
$end
#638
01
#819
00
#5634
0%
#5694
0$
#25000
1!
0&
#25999
1.
#26641
10
#31516
1$
#50000
1"
0!
1&
#50999
0.
1-
#75000
1!
0&
#75999
1.
#76637
11
#76641
00
#81516
0$
#81633
1%
#100000
1#
0"
0!
1&
#100999
0.
0-
1/
#101817
01
#101818
10
#106693
1$
#106813
0%
#125000
1!
0&
#125999
1.
#126637
11
#126641
00
#131516
0$
#131633
1%
#150000
1"
0!
1&
#150999
0.
1-
#175000
1!
0&
#175999
1.
#176641
10
#181516
1$
#200000
0#
0"
0!
1&
#200999
0.
0-
0/
#201637
01
#201818
00
#206633
0%
#206693
0$
#225000
1!
0&
#225999
1.
#226641
10
#231516
1$
#250000
1"
0!
1&
#250999
0.
1-
#275000
1!
0&
#275999
1.
#276637
11
#276641
00
#281516
0$
#281633
1%
#300000
1#
0"
0!
1&
#300999
0.
0-
1/
#301817
01
#301818
10
#306693
1$
#306813
0%
#325000
1!
0&
#325999
1.
#326637
11
#326641
00
#331516
0$
#331633
1%
#350000
1"
0!
1&
#350999
0.
1-
#375000
1!
0&
#375999
1.
#376641
10
#381516
1$
#400000
0#
0"
0!
1&
#400999
0.
0-
0/
#401637
01
#401818
00
#406633
0%
#406693
0$
#425000
1!
0&
#425999
1.
#426641
10
#431516
1$
#450000
1"
0!
1&
#450999
0.
1-
#475000
1!
0&
#475999
1.
#476637
11
#476641
00
#481516
0$
#481633
1%
#500000
1#
0"
0!
1&
#500999
0.
0-
1/
#501817
01
#501818
10
#506693
1$
#506813
0%
#525000
1!
0&
#525999
1.
#526637
11
#526641
00
#531516
0$
#531633
1%
#550000
1"
0!
1&
#550999
0.
1-
#575000
1!
0&
#575999
1.
#576641
10
#581516
1$
#600000
0#
0"
0!
1&
#600999
0.
0-
0/
#601637
01
#601818
00
#606633
0%
#606693
0$
#625000
1!
0&
#625999
1.
#626641
10
#631516
1$
#650000
1"
0!
1&
#650999
0.
1-
#675000
1!
0&
#675999
1.
#676637
11
#676641
00
#681516
0$
#681633
1%
#700000
1#
0"
0!
1&
#700999
0.
0-
1/
#701817
01
#701818
10
#706693
1$
#706813
0%
#725000
1!
0&
#725999
1.
#726637
11
#726641
00
#731516
0$
#731633
1%
#750000
1"
0!
1&
#750999
0.
1-
#775000
1!
0&
#775999
1.
#776641
10
#781516
1$
#800000
0#
0"
0!
1&
#800999
0.
0-
0/
#801637
01
#801818
00
#806633
0%
#806693
0$
#825000
1!
0&
#825999
1.
#826641
10
#831516
1$
#850000
1"
0!
1&
#850999
0.
1-
#875000
1!
0&
#875999
1.
#876637
11
#876641
00
#881516
0$
#881633
1%
#900000
1#
0"
0!
1&
#900999
0.
0-
1/
#901817
01
#901818
10
#906693
1$
#906813
0%
#925000
1!
0&
#925999
1.
#926637
11
#926641
00
#931516
0$
#931633
1%
#950000
1"
0!
1&
#950999
0.
1-
#975000
1!
0&
#975999
1.
#976641
10
#981516
1$
