Lab1/Lab1-Register/simulation/qsim/Register.msim.vcd
$comment
	File created using the following command:
		vcd file Register.msim.vcd -direction
$end
$date
	Thu Mar 11 00:22:58 2021
$end
$version
	ModelSim Version 10.1d
$end
$timescale
	1ps
$end
$scope module REG4_vlg_vec_tst $end
$var reg 1 ! CLK $end
$var reg 1 " I0 $end
$var reg 1 # I1 $end
$var reg 1 $ I2 $end
$var reg 1 % I3 $end
$var reg 1 & S0 $end
$var reg 1 ' S1 $end
$var wire 1 ( Q0 $end
$var wire 1 ) Q1 $end
$var wire 1 * Q2 $end
$var wire 1 + Q3 $end
$var wire 1 , sampler $end
$scope module i1 $end
$var wire 1 - gnd $end
$var wire 1 . vcc $end
$var wire 1 / unknown $end
$var tri1 1 0 devclrn $end
$var tri1 1 1 devpor $end
$var tri1 1 2 devoe $end
$var wire 1 3 I2~combout $end
$var wire 1 4 CLK~combout $end
$var wire 1 5 CLK~clkctrl_outclk $end
$var wire 1 6 S1~combout $end
$var wire 1 7 I0~combout $end
$var wire 1 8 S0~combout $end
$var wire 1 9 I1~combout $end
$var wire 1 : I3~combout $end
$var wire 1 ; inst22~0_combout $end
$var wire 1 < inst22~1_combout $end
$var wire 1 = inst27~regout $end
$var wire 1 > inst19~0_combout $end
$var wire 1 ? inst19~1_combout $end
$var wire 1 @ inst~regout $end
$var wire 1 A inst15~0_combout $end
$var wire 1 B inst15~1_combout $end
$var wire 1 C n4~regout $end
$var wire 1 D inst11~0_combout $end
$var wire 1 E inst11~1_combout $end
$var wire 1 F dff1~regout $end
$upscope $end
$upscope $end
$enddefinitions $end
#0
$dumpvars
0!
0"
0#
0$
0%
0&
0'
x(
x)
x*
x+
x,
0-
1.
x/
10
11
12
03
04
x5
06
07
08
09
0:
x;
x<
0=
x>
x?
0@
xA
xB
0C
xD
xE
0F
$end
#118
05
#1160
0;
#1313
0D
#3391
0)
#3407
0+
#3451
0*
#3461
0(
#5078
0<
#5115
0E
#5265
0>
#5314
0A
#5670
0?
#5712
0B
#20000
1!
0,
#20999
14
#21117
15
#30000
1#
1,
#30850
19
#36164
1A
#36562
1B
#40000
0!
0,
#40999
04
#41117
05
#60000
1$
0#
1!
1,
#60850
09
13
#60999
14
#61117
15
#62948
1C
#66115
1>
#66164
0A
#66339
1)
#66520
1?
#66562
0B
#80000
0!
0,
#80999
04
#81117
05
#90000
1#
1,
#90850
19
#96164
1A
#96562
1B
#100000
1!
0,
#100999
14
#101117
15
#102948
1@
#106399
1*
#120000
1%
0$
0#
0!
1,
#120840
1:
#120850
09
03
#120999
04
#121117
05
#125918
1<
#126115
0>
#126164
0A
#126520
0?
#126562
0B
#140000
1!
0,
#140999
14
#141117
15
#142948
1=
0@
0C
#146339
0)
#146355
1+
#146399
0*
#150000
1#
1,
#150850
19
#156164
1A
#156562
1B
#160000
0!
0,
#160999
04
#161117
05
#180000
1$
0#
1!
1,
#180850
09
13
#180999
14
#181117
15
#182948
1C
#186115
1>
#186164
0A
#186339
1)
#186520
1?
#186562
0B
#200000
0!
0,
#200999
04
#201117
05
#210000
1#
1,
#210850
19
#216164
1A
#216562
1B
#220000
1!
0,
#220999
14
#221117
15
#222948
1@
#226399
1*
#240000
1&
0%
0$
0#
0!
1,
#240840
0:
#240850
09
03
#240979
18
#240999
04
#241117
05
#242139
1;
#242266
0<
#242292
0B
#242314
0A
#242529
1<
#260000
1!
0,
#260999
14
#261117
15
#262948
0C
#263417
0>
#263822
0?
#266339
0)
#270000
1#
1,
#270850
19
#280000
0!
0,
#280999
04
#281117
05
#300000
1$
0#
1!
1,
#300850
09
13
#300999
14
#301117
15
#302948
0@
#303688
0;
#304078
0<
#306399
0*
#320000
0!
0,
#320999
04
#321117
05
#330000
1#
1,
#330850
19
#340000
1!
0,
#340999
14
#341117
15
#342948
0=
#346355
0+
#360000
1%
0$
0#
0!
1,
#360840
1:
#360850
09
03
#360999
04
#361117
05
#380000
1!
0,
#380999
14
#381117
15
#390000
1#
1,
#390850
19
#400000
0!
0,
#400999
04
#401117
05
#420000
1$
0#
1!
1,
#420850
09
13
#420999
14
#421117
15
#440000
0!
0,
#440999
04
#441117
05
#450000
1#
1,
#450850
19
#460000
1!
0,
#460999
14
