Lab1/Lab1-Exercise4(JK-FF)/simulation/qsim/JK_FF.msim.vcd
$comment
	File created using the following command:
		vcd file JK_FF.msim.vcd -direction
$end
$date
	Thu Mar 11 00:16:16 2021
$end
$version
	ModelSim Version 10.1d
$end
$timescale
	1ps
$end
$scope module JK_FF_vlg_vec_tst $end
$var reg 1 ! CLK $end
$var reg 1 " CLR $end
$var reg 1 # J $end
$var reg 1 $ K $end
$var reg 1 % SET $end
$var wire 1 & Q $end
$var wire 1 ' sampler $end
$scope module i1 $end
$var wire 1 ( gnd $end
$var wire 1 ) vcc $end
$var wire 1 * unknown $end
$var tri1 1 + devclrn $end
$var tri1 1 , devpor $end
$var tri1 1 - devoe $end
$var wire 1 . K~combout $end
$var wire 1 / CLK~combout $end
$var wire 1 0 CLR~combout $end
$var wire 1 1 SET~combout $end
$var wire 1 2 inst~1_combout $end
$var wire 1 3 J~combout $end
$var wire 1 4 inst~3_combout $end
$var wire 1 5 inst~0_combout $end
$var wire 1 6 inst~_emulated_regout $end
$var wire 1 7 inst~2_combout $end
$upscope $end
$upscope $end
$enddefinitions $end
#0
$dumpvars
0!
0"
0#
0$
1%
x&
x'
0(
1)
x*
1+
1,
1-
0.
0/
00
11
x2
03
x4
x5
x6
x7
$end
#218
06
#1035
15
#1341
02
#1346
07
#4681
0&
#5048
04
#20000
1!
1"
0'
#20870
1/
#20979
10
#22014
05
#40000
0!
1'
#40870
0/
#50000
1#
0'
#50880
13
#55928
14
#60000
1!
1'
#60870
1/
#62604
16
#63054
17
#66389
1&
#80000
0!
0'
#80870
0/
#100000
1$
0#
1!
1'
#100820
1.
#100870
1/
#100880
03
#106086
04
#120000
0!
0'
#120870
0/
#140000
1!
1'
#140870
1/
#142604
06
#143054
07
#146389
0&
#150000
1#
0'
#150880
13
#155928
14
#160000
0!
1'
#160870
0/
#180000
1!
0'
#180870
1/
#182604
16
#183054
17
#183466
04
#186389
1&
#200000
0$
0#
0!
1'
#200820
0.
#200870
0/
#200880
03
#206086
14
#220000
1!
0'
#220870
1/
#240000
0!
1'
#240870
0/
#250000
1#
0'
#250880
13
#260000
1!
1'
#260870
1/
#280000
0!
0'
#280870
0/
#300000
1$
0#
1!
1'
#300820
1.
#300870
1/
#300880
03
#306086
04
#320000
0!
0'
#320870
0/
#340000
1!
1'
#340870
1/
#342604
06
#343054
07
#346389
0&
#350000
1#
0'
#350880
13
#355928
14
#360000
0!
1'
#360870
0/
#380000
1!
0'
#380870
1/
#382604
16
#383054
17
#383466
04
#386389
1&
#400000
0$
0#
0!
1'
#400820
0.
#400870
0/
#400880
03
#406086
14
#420000
1!
0'
#420870
1/
#440000
0!
1'
#440870
0/
#450000
1#
0'
#450880
13
#460000
1!
1'
#460870
1/
#480000
0!
0'
#480870
0/
#500000
1$
0#
1!
1'
#500820
1.
#500870
1/
#500880
03
#506086
04
#520000
0!
0'
#520870
0/
#540000
1!
1'
#540870
1/
#542604
06
#543054
07
#546389
0&
#550000
1#
0'
#550880
13
#555928
14
#560000
0!
1'
#560870
0/
#580000
1!
0'
#580870
1/
#582604
16
#583054
17
#583466
04
#586389
1&
#600000
0$
0#
0!
1'
#600820
0.
#600870
0/
#600880
03
#606086
14
#620000
1!
0'
#620870
1/
#640000
0!
1'
#640870
0/
#650000
1#
0'
#650880
13
#660000
1!
1'
#660870
1/
#680000
0!
0'
#680870
0/
#700000
1$
0#
1!
1'
#700820
1.
#700870
1/
#700880
03
#706086
04
#720000
0!
0'
#720870
0/
#740000
1!
1'
#740870
1/
#742604
06
#743054
07
#746389
0&
#750000
1#
0'
#750880
13
#755928
14
#760000
0!
1'
#760870
0/
#780000
1!
0'
#780870
1/
#782604
16
#783054
17
#783466
04
#786389
1&
#800000
0$
0#
0!
1'
#800820
0.
#800870
0/
#800880
03
#806086
14
#820000
1!
0'
#820870
1/
#840000
0!
1'
#840870
0/
#850000
1#
0'
#850880
13
#860000
1!
1'
#860870
1/
#880000
0!
0'
#880870
0/
#900000
1$
0#
1!
1'
#900820
1.
#900870
1/
#900880
03
#906086
04
#920000
0!
0'
#920870
0/
#940000
1!
1'
#940870
1/
#942604
06
#943054
07
#946389
0&
#950000
1#
0'
#950880
13
#955928
14
#960000
0!
1'
#960870
0/
#980000
1!
0'
#980870
1/
#982604
16
#983054
17
#983466
04
#986389
1&
