Lab1/Lab1-Exercise4(DFF)/simulation/qsim/Exercise4.msim.vcd
$comment
	File created using the following command:
		vcd file Exercise4.msim.vcd -direction
$end
$date
	Wed Mar 10 16:50:01 2021
$end
$version
	ModelSim Version 10.1d
$end
$timescale
	1ps
$end
$scope module Exercise4_vlg_vec_tst $end
$var reg 1 ! CLOCK $end
$var reg 1 " CLR $end
$var reg 1 # D $end
$var reg 1 $ SET $end
$var wire 1 % Q $end
$var wire 1 & sampler $end
$scope module i1 $end
$var wire 1 ' gnd $end
$var wire 1 ( vcc $end
$var wire 1 ) unknown $end
$var tri1 1 * devclrn $end
$var tri1 1 + devpor $end
$var tri1 1 , devoe $end
$var wire 1 - CLOCK~combout $end
$var wire 1 . SET~combout $end
$var wire 1 / inst~1_combout $end
$var wire 1 0 D~combout $end
$var wire 1 1 inst~3_combout $end
$var wire 1 2 CLR~combout $end
$var wire 1 3 inst~0_combout $end
$var wire 1 4 inst~_emulated_regout $end
$var wire 1 5 inst~2_combout $end
$upscope $end
$upscope $end
$enddefinitions $end
#0
$dumpvars
0!
0"
0#
1$
x%
x&
0'
1(
x)
1*
1+
1,
0-
1.
x/
00
x1
02
x3
x4
x5
$end
#218
04
#523
13
#527
05
#829
0/
#1540
01
#5247
0%
#20000
1!
0&
#20999
1-
#30000
1"
1#
1&
#30999
10
12
#31498
11
#31522
03
#40000
0!
0&
#40999
0-
#60000
1!
1&
#60999
1-
#62118
14
#62812
15
#67532
1%
#80000
0#
0!
0&
#80999
0-
00
#81498
01
#100000
1!
1&
#100999
1-
#102118
04
#102812
05
#107532
0%
#120000
0!
0&
#120999
0-
#140000
1!
1&
#140999
1-
#150000
1#
0&
#150999
10
#151498
11
#160000
0!
1&
#160999
0-
#180000
1!
0&
#180999
1-
#182118
14
#182812
15
#187532
1%
#200000
0!
1&
#200999
0-
#220000
1!
0&
#220999
1-
#240000
0!
1&
#240999
0-
#250000
0#
0&
#250999
00
#251498
01
#260000
1!
1&
#260999
1-
#262118
04
#262812
05
#267532
0%
#280000
0!
0&
#280999
0-
#300000
1!
1&
#300999
1-
#320000
0!
0&
#320999
0-
#340000
1!
1&
#340999
1-
#360000
0!
0&
#360999
0-
#380000
1!
1&
#380999
1-
#400000
0!
0&
#400999
0-
#420000
1!
1&
#420999
1-
#440000
0!
0&
#440999
0-
#460000
1!
1&
#460999
1-
#480000
0!
0&
#480999
0-
#500000
1!
1&
#500999
1-
#520000
0!
0&
#520999
0-
#540000
1!
1&
#540999
1-
#560000
0!
0&
#560999
0-
#580000
1!
1&
#580999
1-
#600000
0!
0&
#600999
0-
#620000
1!
1&
#620999
1-
#640000
0!
0&
#640999
0-
#660000
1!
1&
#660999
1-
#680000
0!
0&
#680999
0-
#700000
1!
1&
#700999
1-
#720000
0!
0&
#720999
0-
#740000
1!
1&
#740999
1-
#760000
0!
0&
#760999
0-
#780000
1!
1&
#780999
1-
#800000
0!
0&
#800999
0-
#820000
1!
1&
#820999
1-
#840000
0!
0&
#840999
0-
#860000
1!
1&
#860999
1-
#880000
0!
0&
#880999
0-
#900000
1!
1&
#900999
1-
#920000
0!
0&
#920999
0-
#940000
1!
1&
#940999
1-
#960000
0!
0&
#960999
0-
#980000
1!
1&
#980999
1-
